Name,WeightClassKg,Division,Sex,Best3SquatKg,Best3BenchKg,Best3DeadliftKg,TotalKg,Event,Equipment,Place
P. Cafruny,44,Open,F,57.5,55,80,192.5,SBD,Single-ply,1
Majik Jones,484,Open,F,145,65,177.5,387.5,SBD,Single-ply,1
M. Vanyo,52,Open,F,47.5,40,65,152.5,SBD,Single-ply,1
Gail Buys,56,Open,F,115,55,110,280,SBD,Single-ply,1
P. Bryant,56,Open,F,100,37.5,105,242.5,SBD,Single-ply,2
Jill Olson,60,Open,F,155,75,127.5,357.5,SBD,Single-ply,1
P. Romero,60,Open,F,95,35,115,245,SBD,Single-ply,2
Karen Ryan,67.5,Open,F,142.5,65,152.5,360,SBD,Single-ply,1
Heidi Carman,75,Open,F,152.5,80,197.5,430,SBD,Single-ply,1
