Event,Sex,Name,State,BodyweightKg,WeightClassKg,Division,Best3SquatKg,Best3BenchKg,Best3DeadliftKg,TotalKg,Equipment,Place
SBD,M,Travis Campbell,SK,78.4,82.5,Sub-Juniors,160,102.5,185,447.5,Single-ply,3
SBD,M,Franklin Marion,AB,81.2,82.5,Sub-Juniors,195,95,185,475,Single-ply,2
SBD,M,Curtis Mihalicz,SK,80.5,82.5,Sub-Juniors,207.5,117.5,225,550,Single-ply,1
SBD,M,Cardell Holinaty,SK,76.3,82.5,Sub-Juniors,165,87.5,172.5,425,Single-ply,4
SBD,M,Herman Singh Hehar,BC,73.8,75,Sub-Juniors,155,80,155,390,Single-ply,3
SBD,M,Eric Bellefeuille,AB,74,75,Sub-Juniors,157.5,110,152.5,420,Single-ply,2
SBD,M,Brennan MacDonald,NS,73.6,75,Sub-Juniors,205,137.5,250,592.5,Single-ply,1
SBD,M,Nick Cassar,AB,66.2,67.5,Sub-Juniors,175,102.5,170,447.5,Single-ply,2
SBD,M,Darshan Singh Gill,BC,61,67.5,Sub-Juniors,130,50,145,325,Single-ply,3
SBD,M,Dale Bélanger-Bouffard,QC,65.4,67.5,Sub-Juniors,197.5,160,197.5,555,Single-ply,1
SBD,M,Stephen Price,NL,59.3,60,Sub-Juniors,180,75,182.5,437.5,Single-ply,3
SBD,F,Karine Royer,QC,57.2,60,Sub-Juniors,85,50,102.5,237.5,Single-ply,2
SBD,M,Joravar Singh Aujla,BC,58,60,Sub-Juniors,100,47.5,140,287.5,Single-ply,4
SBD,F,Deirdra Ashworth,SK,59,60,Sub-Juniors,125,65,150,340,Single-ply,1
SBD,M,Dalton Major,ON,59.4,60,Sub-Juniors,180,95,200,475,Single-ply,2
SBD,M,Carter Balaberda,SK,59.8,60,Sub-Juniors,220.5,150,130,500.5,Single-ply,1
SBD,M,Matt MacLean,PE,103.5,110,Sub-Juniors,235,142.5,220.5,598,Single-ply,1
SBD,M,Jeffery Perry,PE,109.3,110,Sub-Juniors,155,117.5,197.5,470,Single-ply,2
SBD,F,Raelene Marion,AB,97.2,90+,Open,205,143,175,523,Single-ply,1
SBD,M,Vincent Byrne,ON,89.5,90,Open,295,222.5,285,802.5,Single-ply,1
SBD,F,Tracey Halladay,SK,85.7,90,Open,132.5,107.5,155,395,Single-ply,2
SBD,F,Taunia Stevens,SK,82.6,90,Open,200,142.5,145,487.5,Single-ply,1
SBD,M,Robert Truchon,ON,87.1,90,Open,170,130,185,485,Single-ply,5
SBD,M,Jeff Butt,SK,89.5,90,Open,277.5,222.5,297.5,797.5,Single-ply,2
SBD,M,Adam Bury,ON,89.2,90,Open,195,137.5,200,532.5,Single-ply,4
SBD,M,Aaron Ziffle,SK,89.6,90,Open,277.5,207.5,250,735,Single-ply,3
SBD,F,Susan Abbott,ON,80.3,82.5,Open,137.5,105,125,367.5,Single-ply,1
SBD,M,Evan Dunn,PE,81.2,82.5,Open,275,157.5,275,707.5,Single-ply,2
SBD,M,Corey Grandy,NL,81.5,82.5,Open,235,195,245,675,Single-ply,3
SBD,M,Brandon Summers,ON,82,82.5,Open,300,195,265,760,Single-ply,1
SBD,M,Tom Kean,NL,74.5,75,Open,272.5,193,285,750.5,Single-ply,1
SBD,F,Sarah Leighton,ON,65.6,67.5,Open,142.5,92.5,157.5,392.5,Single-ply,2
SBD,M,Ryun Laniec,BC,67.1,67.5,Open,237.5,162.5,210,610,Single-ply,4
SBD,M,Lewis Noppers,AB,67.4,67.5,Open,237.5,155,262.5,655,Single-ply,1
SBD,F,Kacey Baines,QC,64.4,67.5,Open,170,70,162.5,402.5,Single-ply,1
SBD,M,Jean-Sébastien Rhéaume,QC,66.9,67.5,Open,250,167.5,232.5,650,Single-ply,2
SBD,M,Art Chan,ON,66.7,67.5,Open,210,195,240,645,Single-ply,3
SBD,F,Anita Santos,ON,66.9,67.5,Open,127.5,72.5,142.5,342.5,Single-ply,3
SBD,F,Shantelle Szuch,AB,59.5,60,Open,120,62.5,140,322.5,Single-ply,2
SBD,F,Mel Durrant,SK,59.4,60,Open,167.5,100,152.5,420,Single-ply,1
SBD,F,Heather Ayles,PE,55.9,56,Open,165,90.5,170,425.5,Single-ply,1
SBD,F,Diane Richard,SK,55.9,56,Open,127.5,75,127.5,330,Single-ply,3
SBD,F,Annette Powell,MB,54.7,56,Open,127.5,65,140,332.5,Single-ply,2
SBD,F,Preshani Maistry,AB,50.7,52,Open,112.5,60,122.5,295,Single-ply,1
SBD,F,AJ Facendi,AB,47.8,48,Open,115,67.5,112.5,295,Single-ply,1
SBD,M,Stephen Jesso,ON,170.8,125+,Open,295,215,300,810,Single-ply,4
SBD,M,Ryan Stinn,SK,142.7,125+,Open,350,240,310,900,Single-ply,1
SBD,M,Ryan Fowler,SK,125.1,125+,Open,312.5,235,292.5,840,Single-ply,2
SBD,M,Al Block,SK,142.5,125+,Open,285,227.5,300,812.5,Single-ply,3
SBD,M,Tim Ekert,ON,112.6,125,Open,242.5,210,242.5,695,Single-ply,5
SBD,M,Steve Magistrale,ON,121.8,125,Open,335,250,320,905,Single-ply,2
SBD,M,Jason Byrne #1,ON,123.3,125,Open,325,225,307.5,857.5,Single-ply,3
SBD,M,Guy Page,MB,118.4,125,Open,290,202.5,295,787.5,Single-ply,4
SBD,M,Alex Mardell,AB,124.5,125,Open,365.5,290.5,300,956,Single-ply,1
SBD,M,Luke Pike,NL,109.3,110,Open,292.5,182.5,282.5,757.5,Single-ply,2
SBD,M,John MacDonald,PE,108.7,110,Open,337.5,227.5,300,865,Single-ply,1
SBD,M,Alex McNeil,AB,109.6,110,Open,270,205,282.5,757.5,Single-ply,3
SBD,M,Steve Powell,MB,95.3,100,Open,305,210,305,820,Single-ply,1
SBD,M,Daniel MacInnis,PE,98.1,100,Open,310,180,295,785,Single-ply,2
SBD,M,Brandon Ward,ON,99.7,100,Open,255,195,262.5,712.5,Single-ply,3
SBD,M,Joe Stockinger,AB,66.2,67.5,Masters 4,155,100.5,200,455.5,Single-ply,1
SBD,M,Harvey Hanec,MB,89.3,90,Masters 3,150,142.5,162.5,455,Single-ply,1
SBD,F,Susan Haywood,MB,78.2,82.5,Masters 3,96,72.5,112.5,281,Single-ply,1
SBD,M,Michael Eldridge,NS,111.6,125,Masters 3,200,110,227.5,537.5,Single-ply,1
SBD,M,Jack Taylor #1,ON,92.9,100,Masters 3,170,120,192.5,482.5,Single-ply,2
SBD,M,Bert Merriman,MB,90.3,100,Masters 3,160,142.5,200,502.5,Single-ply,1
SBD,M,Jerry Marentette,ON,88.2,90,Masters 2,255,187.5,275,717.5,Single-ply,1
SBD,M,Marc Vézina,BC,82,82.5,Masters 2,190,140,215,545,Single-ply,2
SBD,M,Louis Lévesque,QC,81.8,82.5,Masters 2,187.5,115,187.5,490,Single-ply,3
SBD,M,Bob Hindley,BC,76.3,82.5,Masters 2,240,125,240,605,Single-ply,1
SBD,M,Walter Urban,ON,74.6,75,Masters 2,210,125,227.5,562.5,Single-ply,2
SBD,M,Glyn Moore,ON,74.8,75,Masters 2,237.5,150,222.5,610,Single-ply,1
SBD,F,Althea Flegg,ON,58,60,Masters 2,117.5,55,115,287.5,Single-ply,1
SBD,F,Janet Warne,QC,55.4,56,Masters 2,122.5,67.5,122.5,312.5,Single-ply,1
SBD,M,Ron Strong,ON,117.5,125,Masters 2,280,200,305,785,Single-ply,1
SBD,M,Byron Monstur,NL,92.4,100,Masters 2,227.5,127.5,242.5,597.5,Single-ply,1
SBD,M,Jeff Becker,ON,88.6,90,Masters 1,302.5,197.5,292.5,792.5,Single-ply,1
SBD,M,Hoi Leung,ON,89.9,90,Masters 1,250,172.5,275,697.5,Single-ply,2
SBD,M,Chris Arnold,SK,89.1,90,Masters 1,255,155,240,650,Single-ply,3
SBD,M,Jamie Jamieson,SK,82.3,82.5,Masters 1,240,160,225,625,Single-ply,1
SBD,M,Andrew Bryant,BC,81,82.5,Masters 1,225,170,212.5,607.5,Single-ply,2
SBD,F,Lisa Nigh,ON,72.2,75,Masters 1,102.5,75,125,302.5,Single-ply,3
SBD,F,Karen Allison,ON,73.9,75,Masters 1,145,85,130,360,Single-ply,2
SBD,F,Jackie Pritchard,ON,69,75,Masters 1,162.5,90,145,397.5,Single-ply,1
SBD,F,Diana Burley,QC,59.1,60,Masters 1,107.5,62.5,122.5,292.5,Single-ply,1
SBD,F,Julie Watkin,ON,55,56,Masters 1,107.5,60,130,297.5,Single-ply,1
SBD,F,Sue Thomson,ON,46.7,48,Masters 1,85,52.5,112.5,250,Single-ply,1
SBD,M,Steve Campbell,NL,117.2,125,Masters 1,280,205,280,765,Single-ply,1
SBD,M,Brock Haywood,MB,123,125,Masters 1,265,172.5,250,687.5,Single-ply,2
SBD,M,Trevor Winfield,MB,108.7,110,Masters 1,200,250,200,650,Single-ply,2
SBD,M,Sheldon Duncan,ON,106.1,110,Masters 1,255,207.5,277.5,740,Single-ply,1
SBD,M,Joe Oliveira,BC,98.6,100,Masters 1,310,192.5,262.5,765,Single-ply,1
SBD,M,Andy Childs,ON,99.5,100,Masters 1,285,197.5,262.5,745,Single-ply,2
SBD,F,Stacey Price,NL,85.8,90,Juniors,142.5,80,117.5,340,Single-ply,1
SBD,M,Mike MacDonald #2,NS,89.6,90,Juniors,275,200,320.5,795.5,Single-ply,1
SBD,M,Mike Loder,NL,88.8,90,Juniors,232.5,170,245,647.5,Single-ply,2
SBD,M,Greg Page,ON,89.6,90,Juniors,210,150,200,560,Single-ply,3
SBD,M,Ryne Piovesan,NS,76.3,82.5,Juniors,200,102.5,235,537.5,Single-ply,2
SBD,F,Rhaea Stinn,SK,77.7,82.5,Juniors,210,152.5,192.5,555,Single-ply,1
SBD,M,Daniel Young,NU,81.8,82.5,Juniors,275,165,262.5,702.5,Single-ply,1
SBD,M,Martin Taylor,AB,72.9,75,Juniors,200,140,237.5,577.5,Single-ply,2
SBD,F,Kristen Scott,SK,75,75,Juniors,145,87.5,130,362.5,Single-ply,1
SBD,M,Justin Miller,NL,70.7,75,Juniors,247.5,160,240,647.5,Single-ply,1
SBD,F,Karyne Turcotte,QC,56.1,60,Juniors,60,60,82.5,202.5,Single-ply,1
SBD,M,Justin Yakiwchuk,MB,131,125+,Juniors,225,142.5,245,612.5,Single-ply,1
SBD,M,Scott Simmonds,NL,107.7,110,Juniors,302.5,205,265,772.5,Single-ply,2
SBD,M,Kelly Branton,ON,107.6,110,Juniors,305,212.5,290,807.5,Single-ply,1
SBD,M,Avi Silverberg,AB,105.6,110,Juniors,260,190,260,710,Single-ply,3
SBD,M,Marlon Obratoski,ON,98.9,100,Juniors,290,210,277.5,777.5,Single-ply,1
SBD,M,Jonathan Stewart #1,AB,94.4,100,Juniors,290,167.5,290,747.5,Single-ply,2
SBD,M,Andrew Cameron,ON,100,100,Juniors,255,190,232.5,677.5,Single-ply,3
