Division,WeightClassKg,Place,Name,Team,BodyweightKg,Best3SquatKg,Best3BenchKg,Best3DeadliftKg,TotalKg,Equipment,Event,Sex
Boys,51.71,1,Darrian Butler,Denison,51.62,115.67,63.5,127.01,306.17,Single-ply,SBD,M
Boys,51.71,2,Avery Miller,Denison,47.63,74.84,47.63,99.79,222.26,Single-ply,SBD,M
Boys,55.79,1,Trey Good,Anna,55.7,136.08,81.65,122.47,340.19,Single-ply,SBD,M
Boys,55.79,2,Jeremy Cuellar,Denison,54.98,102.06,77.11,124.74,303.91,Single-ply,SBD,M
Boys,55.79,3,Zach Brigandi,Little Elm,55.52,120.2,63.5,113.4,297.1,Single-ply,SBD,M
Boys,55.79,4,Bryce Evans,Paris North Lamar,54.7,106.59,52.16,120.2,278.96,Single-ply,SBD,M
Boys,55.79,5,Omar Villegas,Melissa,55.07,104.33,52.16,108.86,265.35,Single-ply,SBD,M
Boys,55.79,DQ,Alex Rushing,Whitewright,55.52,133.81,,,,Single-ply,SBD,M
Boys,59.87,1,Johnathan Venable,Anna,59.74,167.83,104.33,161.03,433.18,Single-ply,SBD,M
Boys,59.87,2,Josh Bolton,Paris North Lamar,58.88,156.49,92.99,170.1,419.57,Single-ply,SBD,M
Boys,59.87,3,Dalton Waller,Princeton,59.06,136.08,79.38,136.08,351.53,Single-ply,SBD,M
Boys,59.87,4,Travis Bishop,Blue Ridge,58.97,111.13,61.23,124.74,297.1,Single-ply,SBD,M
Boys,59.87,5,Eddie Ramirez,Blue Ridge,59.87,111.13,61.23,106.59,278.96,Single-ply,SBD,M
Boys,59.87,6,Devin Brunson,Melissa,58.06,90.72,65.77,97.52,254.01,Single-ply,SBD,M
Boys,59.87,7,Hunter Addison,Krum,56.7,83.91,43.09,122.47,249.48,Single-ply,SBD,M
Boys,59.87,8,Eli Mosby,Van Alstyne,58.88,90.72,58.97,99.79,249.48,Single-ply,SBD,M
Boys,59.87,9,Devin Thomas,Blue Ridge,57.61,74.84,56.7,102.06,233.6,Single-ply,SBD,M
Boys,59.87,DQ,Dalton Parfait,Bonham,56.88,127.01,,,,Single-ply,SBD,M
Boys,67.13,1,Wilson Kirkbride,Denison,61.69,183.7,102.06,183.7,469.47,Single-ply,SBD,M
Boys,67.13,2,Conner Darnell,Paris North Lamar,63.73,163.29,124.74,174.63,462.66,Single-ply,SBD,M
Boys,67.13,3,Josh Johnson,Paris North Lamar,66.22,158.76,97.52,165.56,421.84,Single-ply,SBD,M
Boys,67.13,4,Zack Wright,Van Alstyne,63.96,156.49,92.99,138.35,387.82,Single-ply,SBD,M
Boys,67.13,5,Joseph Merrell,Little Elm,66.22,156.49,83.91,147.42,387.82,Single-ply,SBD,M
Boys,67.13,6,Raul Rico,Gunter,67.13,138.35,90.72,145.15,374.21,Single-ply,SBD,M
Boys,67.13,7,Elishah Harrison,Princeton,65.86,142.88,61.23,142.88,347,Single-ply,SBD,M
Boys,67.13,8,Dalton Hill,Van Alstyne,62.87,117.93,74.84,138.35,331.12,Single-ply,SBD,M
Boys,67.13,9,Ronnie Gentry,Krum,61.96,111.13,68.04,131.54,310.71,Single-ply,SBD,M
Boys,67.13,10,Mason Snow,Gunter,64.41,113.4,63.5,120.2,297.1,Single-ply,SBD,M
Boys,67.13,11,Sam Mosby,Van Alstyne,62.78,81.65,52.16,113.4,247.21,Single-ply,SBD,M
Boys,67.13,DQ,Cole Owens,Bonham,65.05,172.37,,,,Single-ply,SBD,M
Boys,74.84,1,Ty Slaughter,Anna,73.84,249.48,158.76,226.8,635.03,Single-ply,SBD,M
Boys,74.84,2,Austin Ballard,Bonham,71.85,163.29,97.52,195.04,455.86,Single-ply,SBD,M
Boys,74.84,3,Dusty Burris,Princeton,72.48,136.08,124.74,183.7,444.52,Single-ply,SBD,M
Boys,74.84,4,Michael Walker #4,Little Elm,73.48,158.76,106.59,163.29,428.64,Single-ply,SBD,M
Boys,74.84,5,Gavin Clark,Whitewright,73.12,158.76,97.52,163.29,419.57,Single-ply,SBD,M
Boys,74.84,6,Khalil Finley,Denison,71.58,149.69,97.52,165.56,412.77,Single-ply,SBD,M
Boys,74.84,7,Armani Johnson,Little Elm,67.77,158.76,90.72,158.76,408.23,Single-ply,SBD,M
Boys,74.84,8,Justin Adams,Krum,69.85,142.88,70.31,181.44,394.63,Single-ply,SBD,M
Boys,74.84,9,Logan Rodriguez,Anna,74.75,145.15,92.99,154.22,392.36,Single-ply,SBD,M
Boys,74.84,10,Haeden Knight,Krum,74.84,154.22,74.84,158.76,387.82,Single-ply,SBD,M
Boys,74.84,11,Lane Pearson,Krum,74.84,111.13,74.84,142.88,328.85,Single-ply,SBD,M
Boys,74.84,12,Michael Paredis,Van Alstyne,69.67,111.13,72.57,129.27,312.98,Single-ply,SBD,M
Boys,74.84,13,Hunter Jones,Paris North Lamar,70.76,102.06,68.04,142.88,312.98,Single-ply,SBD,M
Boys,74.84,14,Collin O'Neal,Melissa,73.48,104.33,63.5,138.35,306.17,Single-ply,SBD,M
Boys,74.84,DQ,Evan Wilson,Bonham,74.84,,,,,Single-ply,SBD,M
Boys,74.84,DQ,Jarrod Zachary,Celeste,68.95,,,,,Single-ply,SBD,M
Boys,82.1,1,Tanner Hartsfield,Howe,81.56,192.78,129.27,190.51,512.56,Single-ply,SBD,M
Boys,82.1,2,Eric Pheng,Paris North Lamar,77.29,174.63,129.27,195.04,498.95,Single-ply,SBD,M
Boys,82.1,3,Roy Goins,Little Elm,77.02,179.17,102.06,179.17,460.4,Single-ply,SBD,M
Boys,82.1,4,Reece Miller,Bonham,81.65,181.44,97.52,176.9,455.86,Single-ply,SBD,M
Boys,82.1,5,Jaxon Heveron,Paris North Lamar,78.93,174.63,97.52,181.44,453.59,Single-ply,SBD,M
Boys,82.1,6,Caleb Lodoux,Bonham,80.47,167.83,111.13,174.63,453.59,Single-ply,SBD,M
Boys,82.1,7,Mason Chrisman,Paris North Lamar,77.2,161.03,97.52,188.24,446.79,Single-ply,SBD,M
Boys,82.1,8,Brandon Gonzalez,Princeton,81.47,165.56,111.13,167.83,444.52,Single-ply,SBD,M
Boys,82.1,9,Caleb Blackwell,Van Alstyne,80.47,170.1,102.06,163.29,435.45,Single-ply,SBD,M
Boys,82.1,10,Mason Riggs,Howe,78.2,158.76,99.79,174.63,433.18,Single-ply,SBD,M
Boys,82.1,11,Danny Boyles,Princeton,80.2,158.76,92.99,170.1,421.84,Single-ply,SBD,M
Boys,82.1,12,Adrian Monks,Bonham,78.93,156.49,90.72,149.69,396.89,Single-ply,SBD,M
Boys,82.1,13,Kendrick McAdams,Howe,79.47,142.88,68.04,165.56,376.48,Single-ply,SBD,M
Boys,82.1,14,Angel Torres #3,Little Elm,78.47,129.27,92.99,151.95,374.21,Single-ply,SBD,M
Boys,82.1,15,Jordan Coleman,Little Elm,77.29,113.4,90.72,165.56,369.68,Single-ply,SBD,M
Boys,82.1,16,Tarius Hare,Krum,78.93,136.08,81.65,151.95,369.68,Single-ply,SBD,M
Boys,82.1,17,Gavin Ritchie,Van Alstyne,79.11,136.08,79.38,151.95,367.41,Single-ply,SBD,M
Boys,82.1,18,Brandon Perdue,Gunter,75.75,140.61,97.52,127.01,365.14,Single-ply,SBD,M
Boys,82.1,19,Kris Blevins,Melissa,76.57,136.08,68.04,142.88,347,Single-ply,SBD,M
Boys,82.1,20,Will Roane,Gunter,82.01,129.27,68.04,122.47,319.78,Single-ply,SBD,M
Boys,82.1,21,Marco Morales,Melissa,75.52,104.33,74.84,127.01,306.17,Single-ply,SBD,M
Boys,82.1,22,Cody Dunn,Whitewright,82.1,106.59,72.57,124.74,303.91,Single-ply,SBD,M
Boys,89.81,1,Brandon Murphy,Whitesboro,84.91,204.12,104.33,197.31,505.76,Single-ply,SBD,M
Boys,89.81,2,John Cooper,Whitewright,88.9,167.83,102.06,226.8,496.68,Single-ply,SBD,M
Boys,89.81,3,Hunter Bigelow,Denison,85.18,170.1,99.79,195.04,464.93,Single-ply,SBD,M
Boys,89.81,4,Trevor Buckaloo,Bonham,86.09,181.44,99.79,183.7,464.93,Single-ply,SBD,M
Boys,89.81,5,Regan Wilkins,Princeton,85.28,161.03,115.67,181.44,458.13,Single-ply,SBD,M
Boys,89.81,6,Jonathan Uland,Bonham,85.91,154.22,104.33,181.44,439.98,Single-ply,SBD,M
Boys,89.81,7,Joe Mason,Whitesboro,89.72,181.44,92.99,158.76,433.18,Single-ply,SBD,M
Boys,89.81,8,Ethan Ford,Krum,84.82,147.42,83.91,174.63,405.97,Single-ply,SBD,M
Boys,89.81,9,Tyson James-Owen,Melissa,86.91,147.42,81.65,147.42,376.48,Single-ply,SBD,M
Boys,89.81,10,Caleb Wiley,Paris North Lamar,86.18,142.88,74.84,142.88,360.61,Single-ply,SBD,M
Boys,89.81,11,Brody Wiggins,Blue Ridge,89.63,124.74,79.38,142.88,347,Single-ply,SBD,M
Boys,89.81,DQ,Chris Tracy,Anna,86.91,,,,,Single-ply,SBD,M
Boys,89.81,DQ,Jaylynn Hanlin,Krum,89.72,111.13,,,,Single-ply,SBD,M
Boys,99.79,1,Bowen Kirkbride,Denison,93.44,249.48,158.76,240.4,648.64,Single-ply,SBD,M
Boys,99.79,2,Charles Ijioma,Little Elm,99.43,244.94,104.33,249.48,598.74,Single-ply,SBD,M
Boys,99.79,3,Tristan Matthews,Howe,97.25,226.8,136.08,213.19,576.06,Single-ply,SBD,M
Boys,99.79,4,Jacob Taylor,Howe,99.52,181.44,120.2,210.92,512.56,Single-ply,SBD,M
Boys,99.79,5,Junior Hernandez,Princeton,94.53,219.99,95.25,161.03,476.27,Single-ply,SBD,M
Boys,99.79,6,Blake Tredway,Anna,97.61,190.51,90.72,174.63,455.86,Single-ply,SBD,M
Boys,99.79,7,Earl Winkle,Gunter,94.53,183.7,104.33,165.56,453.59,Single-ply,SBD,M
Boys,99.79,8,Jason Purifoy,Little Elm,93.89,167.83,88.45,154.22,410.5,Single-ply,SBD,M
Boys,99.79,9,Ethan Wickersham,Paris North Lamar,95.98,154.22,77.11,149.69,381.02,Single-ply,SBD,M
Boys,99.79,10,Larry Gaston,Melissa,98.25,124.74,97.52,149.69,371.95,Single-ply,SBD,M
Boys,99.79,11,David Ferrier,Melissa,97.98,138.35,83.91,142.88,365.14,Single-ply,SBD,M
Boys,99.79,12,Maxwell Nazarko,Van Alstyne,99.43,131.54,92.99,138.35,362.87,Single-ply,SBD,M
Boys,99.79,13,Martin Flores,Melissa,91.44,129.27,97.52,129.27,356.07,Single-ply,SBD,M
Boys,109.77,1,Dylan Branson,Little Elm,105.96,254.01,147.42,224.53,625.96,Single-ply,SBD,M
Boys,109.77,2,Brandon Halliday,Paris North Lamar,104.05,219.99,142.88,197.31,560.19,Single-ply,SBD,M
Boys,109.77,3,Matt Bramer,Van Alstyne,107.5,219.99,124.74,183.7,528.44,Single-ply,SBD,M
Boys,109.77,4,Brandon Miller,Bonham,103.96,183.7,122.47,206.38,512.56,Single-ply,SBD,M
Boys,109.77,5,Garrett Holcombe,Denison,106.05,181.44,108.86,172.37,462.66,Single-ply,SBD,M
Boys,109.77,6,Evan Shipley,Krum,102.33,158.76,88.45,190.51,437.72,Single-ply,SBD,M
Boys,109.77,7,Joey Haley,Paris North Lamar,108.14,142.88,74.84,183.7,401.43,Single-ply,SBD,M
Boys,109.77,DQ,Sawyer Callies,Van Alstyne,103.24,124.74,,,,Single-ply,SBD,M
Boys,109.77,DQ,Garret Sullivan,Celeste,103.33,,,,,Single-ply,SBD,M
Boys,124.74,1,Russell Carey,Whitesboro,121.11,213.19,120.2,210.92,544.31,Single-ply,SBD,M
Boys,124.74,2,Skylar Finnigan,Little Elm,117.03,219.99,117.93,204.12,542.04,Single-ply,SBD,M
Boys,124.74,3,Jeran Lewis,Anna,118.66,174.63,138.35,190.51,503.49,Single-ply,SBD,M
Boys,124.74,4,Colton Chamberlain,Paris North Lamar,116.57,181.44,111.13,165.56,458.13,Single-ply,SBD,M
Boys,124.74,5,Dylan Pruitt,Van Alstyne,110.77,167.83,102.06,163.29,433.18,Single-ply,SBD,M
Boys,124.74,6,Trevor Duggan,Melissa,110.68,181.44,83.91,145.15,410.5,Single-ply,SBD,M
Boys,124.74,7,Everett Gunnoe,Krum,122.83,142.88,83.91,154.22,381.02,Single-ply,SBD,M
Boys,124.74,8,Riley Miner,Paris North Lamar,116.39,83.91,65.77,113.4,263.08,Single-ply,SBD,M
Boys,124.74,DQ,Jamien Rugwiza,Princeton,112.04,,,,,Single-ply,SBD,M
Boys,124.74,DQ,Anthony Tarango,Celeste,120.93,,,,,Single-ply,SBD,M
Boys,124.74,DQ,Daniel Dowling,Bonham,117.3,222.26,,,,Single-ply,SBD,M
Boys,124.74,DQ,Kyle Brooks,Denison,121.38,,,,,Single-ply,SBD,M
Boys,124.74+,1,Travis Shouse,Anna,131.77,260.82,161.03,204.12,625.96,Single-ply,SBD,M
Boys,124.74+,2,Sheldon Parkman,Gunter,132.27,278.96,124.74,210.92,614.62,Single-ply,SBD,M
Boys,124.74+,3,Mike Grimes,Princeton,158.3,226.8,149.69,208.65,585.13,Single-ply,SBD,M
Boys,124.74+,4,Jaden Forbes,Denison,151.95,174.63,108.86,190.51,474,Single-ply,SBD,M
Boys,124.74+,5,Kyle Duke,Whitewright,126.92,188.24,102.06,179.17,469.47,Single-ply,SBD,M
Boys,124.74+,6,Zane Howard,Krum,126.01,181.44,102.06,165.56,449.06,Single-ply,SBD,M
Boys,124.74+,DQ,Chris McKinney,Denison,160.12,204.12,,,,Single-ply,SBD,M
Boys,124.74+,DQ,Dominic Little,Whitewright,139.16,231.33,108.86,,,Single-ply,SBD,M
Boys,,NS,Thomas Gallardo,Melissa,,,,,,Single-ply,SBD,M
