Name,Event,Sex,Best3BenchKg,TotalKg,Equipment,Place,BodyweightKg
Shaun Bostok,B,M,325,325,Multi-ply,1,144.24
Nemo Stimic,B,M,280,280,Multi-ply,2,120.2
Marty Girvan,B,M,230,230,Multi-ply,3,125.19
Daniel Portelli,B,M,220,220,Multi-ply,4,128.37
Daniel DiPascalli,B,M,210,210,Multi-ply,5,86.64
Clint Gregan,B,M,200,200,Multi-ply,6,98.88
Steve Brown #1,B,M,200,200,Multi-ply,7,109.32
